…
c(13556.4646, 546946.65465) %>% map(fr_formatting)

## [[1]]
## [1] "13 556"
## 
## [[2]]
## [1] "546 947"

tibble(
  valeur = 
    runif(n = 50, min = 100, max = 6000)
  ) %>% 
  mutate(mise_en_forme = valeur %>% fr_formatting)

## # A tibble: 50 x 2
##    valeur mise_en_forme
##     <dbl> <chr>        
##  1  3036. 3 035.6      
##  2  4374. 4 373.9      
##  3  1313. 1 312.9      
##  4  3626. 3 626.3      
##  5  1439. 1 439.3      
##  6  3824. 3 824.4      
##  7  5657. 5 657.1      
##  8  3409. 3 409.0      
##  9  4678. 4 678.1      
## 10  4000. 3 999.5      
## # ... with 40 more rows

This time it was Julien Barnier who helped me out by pointing out that I had made a mistake at accuracy, there is no ‘n’….

Strangely enough, it worked better right away.

fr_formatting <- label_number(accuracy = 1)

tibble(
  valeur = 
    runif(n = 50, min = 100, max = 6000)
  ) %>% 
  mutate(mise_en_forme = valeur %>% fr_formatting)

## # A tibble: 50 x 2
##    valeur mise_en_forme
##     <dbl> <chr>        
##  1  3130. 3 130        
##  2  4006. 4 006        
##  3  3970. 3 970        
##  4  2527. 2 527        
##  5  1696. 1 696        
##  6  5412. 5 412        
##  7  3168. 3 168        
##  8  4479. 4 479        
##  9  2824. 2 824        
## 10  5027. 5 027        
## # ... with 40 more rows
…
