…
c(13556.4646, 546946.65465) %>% map(mise_en_forme_fr)

## [[1]]
## [1] "13 556"
## 
## [[2]]
## [1] "546 947"

tibble(
  valeur = 
    runif(n = 50, min = 100, max = 6000)
  ) %>% 
  mutate(mise_en_forme = valeur %>% mise_en_forme_fr)

## # A tibble: 50 x 2
##    valeur mise_en_forme
##     <dbl> <chr>        
##  1  1880. 1 880.0      
##  2  2015. 2 014.5      
##  3  3134. 3 134.3      
##  4  1015. 1 015.0      
##  5  2796. 2 796.2      
##  6  5718. 5 718.1      
##  7  4910. 4 910.0      
##  8  5250. 5 250.0      
##  9  1740. 1 739.8      
## 10  2101. 2 101.0      
## # ... with 40 more rows

Cette fois-là c’est Julien Barnier qui m’a dépanné en me faisant remarquer que j’avais fait une faute à accuracy, il n’y a pas de ‘n’…

Bizarrement ça a tout de suite mieux fonctionné.

mise_en_forme_fr <- label_number(accuracy = 1)

tibble(
  valeur = 
    runif(n = 50, min = 100, max = 6000)
  ) %>% 
  mutate(mise_en_forme = valeur %>% mise_en_forme_fr)

## # A tibble: 50 x 2
##    valeur mise_en_forme
##     <dbl> <chr>        
##  1  4658. 4 658        
##  2   994. 994          
##  3  5676. 5 676        
##  4  4622. 4 622        
##  5  1136. 1 136        
##  6  2786. 2 786        
##  7  5686. 5 686        
##  8  4436. 4 436        
##  9   851. 851          
## 10  5139. 5 139        
## # ... with 40 more rows
…
